C6C55B3B570E201D6D3000E9B07A5C37
A046ED02B2187C454F8E9511EE8C5177
759AC95915BADA61A8D06E5F8E54367D
A1D05C3A7291FD72727DD37FB698F8F8
145E9B0136F9942B3B2F25CB1E2CB687
BBC5F5534B4E7699DB621005EF6F556E
71B500C2AC5E5F1A61B2E19BE0899EA2
95D982BFD94A886CC9E4ED8E1955BE97
18EC832BDDF9524792453D09BBE03FBA
392A23C6AF268851E4925B6D53021AFA
44801F6D30B2B4E41509F218A425CE77
0F8E66399E770FC69CC87EC9FB80301B
8844AD5D7E3C598EEE3A179D9DB9323A
219B926752CDCC03EB55E4B3E28D12A3
5BF860C7E19BFCD7127603044D6A4660
CA2BFC5F831A7C24632261644C95B3C1
D82D2B708E40CDF8865695F6D6904EDF
5BED38B41600F281E607E4C0148F8558
C4812F92972B6FC0DF0DF5B08FAA7CFE
F8566969A7BD222A2BAD577AFC80F87F
1FDA6A34717D5E1AED5E5A2BE4D6B063
E21FF00F1F90FF1491038E4816E81713
0E25E16E6E5087DE5E4CD288D106AECD
01E650793C5A845EDEE0D9DDA2AE34A1
86E6AFF79AA5936F1F16A18983A05758
9CC731E8DF0EEB525572047AF5E89149
A54F23177A2B0719127B9484A42D93F4
38EA8F22AF227813FE0BDE75E29110BE
54BF874D534582DE928345BC4DD85F73
7E9B0B7005CCC1DC3471BAAAFC6B43E0
25226C71D908B2084D6B7EDB6FF08676
C3D3BAA4D12666DD38C1D312B4C84EC1
A6F5E3C9F1AE1DA7E260BE4B78ED6FCC
844A8E7A26A5E1E76E5EBBA5967EC7DF
1E1D800F5EA3673A8F25DAC42DEFAFFD
50E4AE2C18574D713F4FC557AA2273A5
5A40AF06B2EE23A0E6CDD4FA20519525
F7BA62AF353F4D03529DED1B541E0E29
3A4F0FD19DC55173C51B9B6EADAB2965
2181DE7B81343DE90D1BE7E7766D3836
B98A34F377EE39CFC0FDB1D049F4A286
8A180750B1510D6C504BCA053F0B02AB
F126858EF56F553F2905D179AC4AF057
BB54E42C11EB1C202587563F1BB144A5
2ED3F26D041F72F35395FE5E132E67BF
8BD4ACF60683E16AC2582A0C809B9D3E
E40261210BC6569B3737791D833340D5
574ADAACC002F218775B4E5B4DE0CDD3
9653D2B8752249D75A5199BC4EDCFFCA
122AED40C25EF37235E8DE24134CA777
0E7A498915C5E34F2FBAA9CE39EC286F
46D3422888B47156187FD5DEC151E11B
E498379EF0F4AE760C4DF3DE79FE3F3B
C490BEF59D263360DB13FF1AE418B979
64F1D70FB7C9112E99AA41522BC4E375
8DCD6DFDEE1E5DC868BD0E031626ABD4
9360A5FB35D1522EC881D61D041B2C37
DF3C52F7FD51036E3552CCC87E1B83B1
86B04392C7269C0CFE33B08FAF1FF406
0E140D8DFE5CF1C8ABB2CB17C7EEADD2
711191266238B04306F7C5D842852BED
61AC988561510F2B4DFE13E022595490
AAF8415E59A43D17C9E7FE75069960C6
60E7448E8227719F416DF3B316899D6F
A99E27F44C9374D8CA1BB23204B70240
8C2EE27D3AE8579624B9F74BC4EB4DBA
7AD7A174535E788045DDC278B078269A
18695103666FF18D2119E037B3183B0A
AA21F356637A42C6A34FF889699EB2AA
2D5165767113D4197D2E6423992506FA
DD2356479E71322D41F80232C1CE0376
B71D1C5597E4CE6A60720483A7AEDA3D
4668D6AB454968D42D7A0E45DFA3D4E7
08007F54E1A1C98F0AE578C5285C8176
B2A8C8E3B843A7AB47FC6E6F4B54B905
29895DA0778CF885E6C282B3F700FE4C
B3BD46E3F58BE7F87CA63E9234431066
F0779C14AA904963B1037D497186DE51
2101926CBED98DAA6B2D5928378F3B97
AE17185C50F3D393805A55CF42C67A7A
B63219724F8B723215FFE7F75165E725
4F9D8BEEB153411B9A3AD28C9D1749F3
3107C1974DDE7FF64D1409E2F5F71E89
48412811D3B5FBE6632C9F1BB29CAD8B
7ABECC23B40EB144FEF74B832DB488AA
D414050F4C6907217ED0B06A6F478AB7
2A52B8F1CF257279F61AF7F8C95B7A52
1FA8BF91B522400DB4B91F38557CF6F2
72F9B23E1CAD7917E6635416296BEEFE
ABD247F08D1D02E217C505660C71F8C0
54B89BEF3EC39271CFE62AAFED45E2C1
0B9D5B8700584AECAE490C1A645F5D1F
3AB0B2907309BDE8BCD6A323F31DA63B
34EF61A3BBCA1BD05B87530DCFB598BE
AE1756C45C6BE02962E1D101B1D7EFF1
FC28CB3453A2F93D43EF19D8E3D29B04
D5FF2932F90ABA555A4A56F451E602FF
484321F447287DDA566B4FC54D57E6D6
D47C9CF701778D19E469024585A03083
79368D254F3E0DF0CD0CF8C1651289C2
DFF9A28609BDE71405953B857957645A
1A2D6BE07ABC9C092F1680B937F434EA
3BADCF639826D519C235D6CD213D501E
41D0F689DA675AA5795A0A17D4E7C7CB
FDF508917B8E40CB9152F87F192023F5
D7B4B7181DB6AC9FF6A079E0960F18C5
5793D236CF590B85E9686A85E540EB23
444106BC7ED4D756E0926208B607966C
3F2BB33C7522AB2423802F5E172B7844
A6179E1F23735B80731EF13827BF2BEB
C4F48DBB25E34FF95030756FFF9AF5F9
4BB1979016B7EA5B468E5F3B08CCBC3F
7B7431985712992E6F57985653762A96
D27D3C49894380012E7B3F9C573EF264
92A96E6B2082B4395B879F6FD34FC7C7
412F97BC39FA6FB2E7F0541D44C5AA86
C583336CCB237D2D2FCFBB90544E8947
E344ABD8ABB58FF9715C702EA0444C60
7832A25750D97386DA6B77DD2F0D38BA
F17DD38404A905603BB17CCC517168DB
D626B2415741DD1394C11EAC30746C49
B38A1A0693735CD11B764D44672B707C
59228ACDE77794E79E34471AB3335D35
2B87D029F9EE7DFD1C98667B3A5FDEB8
C26C33F027229C9959E4D64159A2B19D
1E4147C8444B327583A350365B8E0FE2
9659FA3EBE7E0B0E4CD8E7F661C56412
EEF742EA2551D21FC6875C0E006090DD
FC67794BA34523EB4D5B095D1FC591C8
BA196822572341777ADB76806E218754
C79D7BC37E82A0DBD2EAB94EEED86D2D
AB8E1A721B03264D4211936CE9BB6FC1
3FE46EEB095A46D2488AC7B18859F7BB
0385E8C1EB90C760EDAABF8CC4F0BA82
4A2AC216B2E71C2504969D06F7756845
824355C5A4A8CC0A250088F132036AF6
BD72278BB5928A97D1196BC983C2E78C
AE899C1D3EA28FCBB23FFA81FD117303
DD72EF3A1025117B5C6BFBC43B95D6F4
F8E8AE0D0A9BBE10AF91DF84E6250154
4065954D855EFA145A81581362E65113
655EA38C29377A5AA69CBA2A7FF9C654
B2A88B2D68B1D3BB94C0EF745DE33FD5
81365D5DD2DEF6247C1899B1CA2CAD4D
922609A1C51127EFE8CE3AC1F8B42D7B
CD046ACF476621DBD4E567D4BAA577FB
4F8F771B6C369548057A4A74781C7635
2B1C5D0DF5870BD9037DB98EEB50F0FE
F1F264A0E536781F3565256DC765D762
083451A69548F2F28FA10C0A1C4B4DAC
CB812E9919015DB1E09DF1F68811243C
9D78CB046CF514EDD699D6D569C66275
B42B8D9013774E01DBF59DF54F15669F
B6B1D4746CB0100B5E66D303323FC7C8
9FB4D6AB1B317B058CAC202396287C16
9DB0AF278E810A257BBCA85FE1DE0AB6
51420EA302F38B09F1265622074C584C
4E03484CD92B6AB92C21FD65D3FC6E4A
1011FB317FF0BB76B3DB24324C0B28B5
879BCE7D108A14350D7E3150DA08F0C9
33DE4B0D1A0986E74B7BAA18C4383740
83A8F0A95E1DD6361D99DA29DED0F9FD
0A5A5D22EC0BC8DDDBC03E155CBCE76A
E706E9CC820001F321BA56E235EAA9B3
13BE2F6C9D4FA9F60F4A3250CDFE34AD
EF3B7257C56FF535D27E57120C8011D9
E4D9235C72FF5A1FEE23D3045EEF8B76
F8C96E815A83C888AD3EAA2B326AF25A
B0259AC43D9C69DA25079C435EA8A6DA
19F3C5C1DA76E1233FD0852EFB8CB2B2
D67DD5BB2B56FB39B7A064D402D15554
9227391FABF41481C2FB71C1B6B62521
B557551B11633EFF93D59A545E065558
298FD3471E8D88DA11D779353B2C268D
BD2B5B13D8A1CE2F19E4B9AE3EA587A6
21A51130C3B0C34A8D43323D2FC27670
9C00B096456E3E9B90EF9765EBCEDCF9
8738EE917311080F1FFF08BEFC7E7AF4
06599A7F51606D852730A2281A9B9CB1
BA3D291D6EAF9849B1828214FB1ADB09
B73216585C25D592E1A4E4496442989F
FF3F0062647B5121001EF839A9F3D3BF
ED9DDA223A90D30609DD3D6DD25393FA
C59C6B641E2371DEF2AF0D37B1C85067
95E298A78E4AD14A26BEF9799928FFDE
04A40BBCEEE8189A683948BD4D58316D
1910F52AA691A9B4070C71B837703BB6
C23F4BF2DB680D260B0F001C2E9FB551
41F888F71B3B212BDFC8C0D1AE7B1636
482CB34304F1E910929A2DA51CFBACB6
61FA5AB3A780ED1C7D4AEC56830DD97B
80DAFBB44D2E49950016D52977FBE2EE
025CA80F5F52111233CDCB71C6DCAA6D
88298323371047FC20D5B1768FC0A1AD
EE15C9F9A6B1D30BA3FE5ACE7FEBCAB6
3477DF52047B3C4255BBFB801E99E39D
5D6DD6EDF3F6FBC75BEB357341B2AB38
48DC58977C5C700651B7DA8BE29C7262
784ABC84E563F7FB4D9713F2CF64A538
E9EAAE78113F25BB3FDC947697F17F6D
305EDF21744FAB01E259BAE5CEFB7DDF
A2FB8A1B0476EFCD08039559BBA3A78D
BDFA41141E29CC37B2029DB99F85925D
AFFBCB906A52DEB9494FCC5B3CFCCB80
E8F6F9F2B63D2F35F64C64770A4A3FBA
D908138F2B110E8EDA274B6CF79BE2A8
952E94528811B2D640E29037DB972D94
B3640C4A788F31C902161FAEAC500C64
7133619BFBD8AA9F3ED2370072814EC4
D631ACD9303AD47470AD8353E81E2B36
98A7E46966E4115BD8D76E7A20DA40DE
0D8B439A907FF730943809AFF336CE92
2BDCFEDC188BB626B26F32014630B629
3D5B2C5A8487387C21B42D2E7793DDE3
1EB7BCBA614F4BCBD9CD6F42794C5D97
16EA36DB1CC208C20A18C0029AB4095C
0F8AEDCC141D483CC00E045EED42EB58
28C64FF2FE5EFE66536CB8B0913D3747
EED083171346E8F99B71DEFD78C95C5F
B3007AEAF1134194D0E4E823BA1F1999
7E0B48211A94CFB3F8B0CC2701A7FB4D
0A8AB65D500164167FD93F6DE36BD1D0
D45768892C206369C51CB82AD2E602E0
E0CD9DA959E60E9CE6EEB84B81EECC76
12C831465EC476A7EA1B35AA2E951600
4C6B7F4D328796E14A2BA53572CBF3EC
DE3BA9D7A57833F041F60137209B1BF9
9FE883B0E563155E3012F8B873FA7385
2988444A84D8CBA1D258F837182D2013
1117667DB2A9A8FAE932D49586606ECB
C2863D5D99E99CA444A5A4FE7834C26B
0FC12F80BFB12BCC738062D3F9E777F8
A683715EC64703F1A423ACE6B7362964
1FBCD5078338E53BE6D1E063658ECD2B
A07A891060EC8B38384A5524F2825048
53BDECC727457D15F5AB12388C03FA58
40E79FBDB8DA0750778E7DF72B364151
D7EBC2BAAE5160A23B874B76D79ACAC6
9F700A379AC2E92C85FDDA3C72E18A83
A9244666DE7B74588438DE59B28C81ED
B4D904929C867B4855916837EB8FE3E6
2EC848775FD21232CDB2D192C850C78D
473EE5251AB475DC535CC06C662F0158
1535DB97BA2A9DBA5C5D9AD8538ECBA4
6098F34247D5FF732D6381966B0502B4
1BCC0BC40D634A434907B80B5913BD81
960A4EAC7A59C1C31BA176422BCFCF0E
6B949B5E60F3B19E7CC6EB282B6BE0D9
A96C25D370415CF0CAD542EE37C48947
E9C68A9303B56DC6F3DF74F26ABF561E
7C08F5FF2E17C5546C3B1067783FBBA1
C1901019D9580958958C0C30FC558443
F7132DE3742D0D8223784DF0257AD432
A19DA62363814DE8958EDD94C060FA29
914174B11C2A9A3CD9CE92567659D7B4
D645F232B5431CBF5F1478C5A53220D3
5636E7471821CE5C9A523790E62F308B
24D5D5DAD72D609724928A2A788F1C14
44C8D046050B21AC195A06118BC11C67
529EB2F715684B87B8AE3C583A00C746
2664C62152E5195C110F7225085D3ECA
EAD7F2845A44E1295CB87B2BB064BAFE
76CF91DA0D2437643D006C86255782DC
20F4EA30BFE0FA71E505BD91A729DE50
14CBF0E1508E436146B011CCB8E04F44
2E0BBEFEE5DDA0C26B468C0AB5A538B4
4CFFCC656BE706099643FAE7FC569D41
0CD5E89FCFCD0366403B6DAC46BD806D
D895135620C41AB70BEB78F22AF6A08D
9A18B7FB1FBDDCDD9B933AE5F3627E60
16565268B754AD671719C45A1638F62A
3FA627924CA7A059E9BA971010A7BBD1
DC89A1611046BC2894A9A7DE5C2574F7
DEB838BDEA27C0B0DE45247B8756DBB1
02CAE65A6B35515CC80A46B47ECD4045
46FE1682A9579ADADD69BB308C117415
A28A7B2069DE0BF74F0065F35B4DBC1A
2DE3FD9C7085C5F8E4E03826BB3D4B77
894CC16B0A54147F1AA68A42C6158767
FABBB154C356B1C16298CD9603EB2BFC
193AED299CE0732AD0910A815D1A288C
F52DA2E2244A47637D5777F5DEB997B8
4EB8C370CF7188BA3ADB8F9CDA6B75F5
54655C0E92AD1EAB0E9153B108FB2EF1
CD24F708F0CF3439B5570A4E85B7D21A
05B20E37C5F4E0918BEFF44A19AEE259
28455608BCA0A9F7C8FB3B791762A364
409050DC30AF53BA749C05B26DD2724E
8A13457DFDAF38C3AB7C2AECF34CE23E
445F38846AE34E56FE76670BDCF12353
3507E8C192878FEAFA12DCFB09C860CF
321E0AFD5454D0330EB006E1E02732EE
066C17B76C30304FE56DBE866B2ECBCD
3DA64CF8983F2DB7E3EDB82A952D424B
9113DB2AD35C1CE703D5F39E8CBA54D6
7E43A37C9A81054CC87592B9478A303D
349955B11FC85C3AC53FD64C93533DA8
85E26202298BD7D92437214C9AB7661C
C223A50DDCE7F40A39DB846C07020CBE
22DAD2D137F47F6045DD017E647952E1
00B9C8C5CC980A1C7ACCF3B238176541
D82277FE25C78B1C0482A73975462793
A11C5AEEA6617585ABC82DA4E57A33B0
53B7A5FC7245986320FF4F8ED00B4876
57F59CF3B744B1B4F4AA1B3F7627140B
07DEE2535F6CC14DE90CE8A378EEFE08
0D7E664EA655B8609B2B77BCB0BDAF84
B1CFF2C8C39D5638E3746AB020EFB2CE
9F840D65520D40D9EEF3B464798BEEDF
393BFDEDDBA05D404619C9D9D86A1E6B
A1CB4D107B68EE573C3C06CD0036A3B2
FF6A2E385830131BB74A7BE7BEBA6C27
30E892BA07477C97667EC114C47D1B9C
518B69B73844379117E10DCBB452ECF6
9C7B28E1EB0E55D440931BD8CDEE001B
6BBC3ACCC4AFA824C472FF42372A1BC6
CEF5AB9C43096A45C7948D0DEE2B1AC6
447B2EB39E38078E634965B5F9C382CE
99457356C1FD453E8D6F4D2888DA0EFB
D27CAB082EEC487CCC6E0FB148EDF5BC
9B5510A7C870F3F43EA2CFA96D6F3B15
BFF81C96097F8D6AE9B04BE2F3259508
2CE452188609B65626D34F9C7E087D04
985F7940D37B17E6A0499B6A46F5FCFA
EB4917C3DFB1E5D43DD0847AFB1AEF34
6671323A69C500706BEC5D5DE406D03D
9500488B823DA2D9554ED801BAB81693
333AB1BEA01D8B143DEA29B525A3112B
1DA8BAFB47C011691CD3B3989B0D1D5F
376C516B5E3BE22F8ED6108807FCEAD5
BFE56087CD8408AF23F3FC425B97AE15
88D0174A8659BEB52622AD250A483B4F
2DF170A2481855019A3EA26C1EC63674
62A248308DC021F6F48B7B0D6B1F0506
D2BF170ABBC519DA1012C1B8A41C4DD7
6FD90B534680E0EABEA1D8B35CA742CE
3F1DE951DEFE84E4CA356A8FC4A1EFEC
C3B048DB4D864484D1DC3D791E9AA082
51A2ED0FDFFD6E2FDDA6CE27FE2C572A
B7503B40265E830EE551F4D431ABE521
8DFD027D7B4E0A851EF599888648B33E
826EF55D4A7895C8DA289987486C2A3F
6D6192FC292F4A53C649B333F837BC2B
8DC961F1DF00932F2008AFC76085145D
A14A8CF68B5A5E6E877EBEA89134A99D
C666C9B8B53BD088CD60A79E31DB8BA1
FB413A525F94991A4AD1BEF2539EA8B1
24FC9129901EBB174B603D04645BBEFC
AED393090CEE684961EE7C27ADC5FAFA
BFB0B66BBE9B5722233181898BF31309
9627B9B12E78A22B7C7207A147B19EDF
8E6D1E2DB0A28FF1E94B5D71F28223ED
EA5809BAC7BD8AF0B29B65E670BFD66C
3DAC2AEB26DBF582DC9D9B5D046CD6FA
0945388B8622B99040DA6B49DF4BEAF9
1404FFC5C098C3FCC15247F282AC3CCD
B55030525F5834A051F92DB6A695CB84
7C09DA17F2893A1E8FDEDBD53428890E
B3E424B5B5F4B1E318EE689A33840F1A
1E055DC0086160A6F101DC906B9B9CF4
679E3768B8CAA4214B806F7DC75EB48A
A17E3B022A6810633089761A3E2E9D6D
874B0FC970CD39A2E2E3392C28A64032
B47C1D58BD27B6704446941A8C662671
F44F4E3E66F5701FD8C384C30D5D418E
CF15F3FD2702D02B82A38CC4AF4D68DA
0369A18106D8937D1D37CFDA9D1D0DDA
BF984C723C3807286B2277C6063791D9
23E5AE2D55F4E763E32ACD00890BA15D
417D8D29D3A474FB7A67CD4EE06EE79D
FB02171921B74A18FA7A81B0EC13E571
BED4DEF4CA34D29EFD13FE5BDD3B8653
E9DA0CF9F2F5B10F232FCF789E534151
E86A5B27199C73A38E55752D64C49393
4E7A875CFF89C8CF44B4899C13742EFB
8AD1A96E4248977419F3B32AE5D4A7E8
20FB5B5E0728A7D812F053D6D8AB1165
EA647F1FC9BA4BEE06736BFB7CF9E2F0
DE0A8A22BFF17FA63509FA3D2FBC016C
DC09AD4E0AE4F2E850DB42B098A0A59A
17CE3383C70729D60E63C93D805DB86D
2FE75DE5A5B02537E8F13D72ED273A83
756C23D50DBA440FD3777B71579325EC
34BF9CD3B47D6C80C5C16A51F37809F2
5923BD5156BD2C099F65D9BCF504B1A3
5302F1CEFBE75E8662171421D1BB07E6
C810ACE26F00D8D898C2FD95AF7C13C0
DDD829253FF0E2F072ABFA2EFD46D01E
53E24642031A9222089E64E4DDA39721
2F148A923A27FB4392379C92A5BB457A
1C751063529680F71432CC67C2CB891C
37F0CE27800D9A0446F7B7A94ABFD7BF
34D4C02D9E56BAC90ED2E7EC6A38C83C
B2B5690F761CE4D5F1F89724960B4242
5F2CDB113CCD51D3E35A5AA81728F8CC
C4183237EA749269BD7887F1B2CFEBC7
8BBA45164C3AF9C6A4CF5EE63A063749
718DF6DAA1E4C7A3115E1679E9BA4CFD
D326BDE355919B210DB4354E3E88DB2E
F203DCFD0CA78A3C0C6F03007C16D5CD
7FAC8EAAD35CC3862165B8BA609C3138
CC390E57F1B1723963DDC62467EA16A8
2FC612DD3BB95B325D517EDD516FAA47
B3EBE2BB2561D6AA726275683BEFFE0A
2C629000CB7960994FAC2488CAE44637
177FB87BECC624BE0F72A8FE0354F744
297D53C03F5C7500DE42A2A191CD6432
7BCE460F423BA316E578852594A296CA
DE538929727E6FC09CBE7231642269F7
DC5EAD68CF6DBCED26A3D6DDFAAF7238
B3C35E4C9773E069132D140C0A62A0F9
77C5F26B8EB55966A9DC624851184931
3AFC203B6ED827D329ED0CB389BC3CD3
EF07BDA7341DD503CB3AC363AE74421A
7870BAE612DF7A4429CAC3BE83FD588D
9C05647DE29DD74F1CAD43A936DAD368
41CA66B34A6C68AA5F922811590056D9
B297158E5E187AB190F9CC7C1E0C4D35
202F403D95B03254045A290E6E66DE98
FEF9811B34C66AE8D8300EB48291F30B
626BC9BB88784490991BD6F52A5E6B08
D8BD42924C5B602E6DEE290BA3DA9C9B
82C728D3C89D71F1C6DC48A7205A1781
03912C56FC42F1FA75653AD72393CBF7
A6E44D78382F78FE3498836CF0815666
708479E4C95FBB76C58B915A33E46622
8B6876E3E3AA08E10FEE639EBE2B5E6F
5F7A17966C5BFAFF1BA3486FB6549F09
6DEDB22FA14457F44B1EB1D81D49F84B
D1D5A67835282A17A0A90BB9D934DE62
7A69DCE9ED0DB4B1E150E745F2B12267
F5DEBCBFDFED65F9D52A02DDDFFAA100
0F81D2306335EDC76381D063D4A851DF
514FCE7254F3B03ED296A0CC71474400
59879FFB0CE4A5A199E81F44CEE3B668
9C42A22444A00735A26DCBA87FA6326F
8226575BD6B0D68DF89C39231F46563D
6C2EEA44F3C3D849BF33DB8B488A7F48
84DD9653DD13A1034CB38F0A84382396
9A64CE4824CD2F0AA6884CC270351ED6
66CE0CCBA1FFEE95ED4B15D223591B7C
A95E162CA89B86FE51706927B418D6EB
7C1DEA157011EC7859C335054F4F5022
6CFA8D0A2DADDE2E4CF5EF46CC7C29C3
143419AE4D058C4013408B2F22F680C7
EA56F3044F8D433352D79AA649412936
8662D422C4E42F08A6B47F3DF125CE36
759EBD5EF76BD2E8212EB12A5E6E2352
B7039C6F5348277B78CABD4B8E2A4014
0401A558B2FB2FD636EC17942107773D
1A5FEED8CF2BACD2B0977F66C6EF8A48
1D3F3A5A099E4250148B2389C014621A
AC8BCEA15249717C009CD39745AEBCC8
2682243E5EA0E47C8AF247F021A0495B
6B90302929118E6F2F0A1FADEB5E532D
3828B26BD779C3620A902713D03F5651
23F3ABC7DC8876D01E48DE11B3C506F7
AB09D1AFD5EF21C05BF9872E54A409D7
6030337E842179C30D42FB092CE309C0
EBD576B5098EB883A1DCD117A8593638
27E83E836618B0950D834DE77912C0D6
859223919BBA480C0DFD494DCB290215
5A51F808292EAEA240DC03B5DE93D7FC
BC8A117A5FA7A3A54D98573611642B76
B9519A7EA3F2282780E54C9BF4B11E55
F840E67C718A12747B873CC478B2A6B3
82DD737E069E526B2E479F93A4737BF7
0B8B134B2ED954D7C725A37013C68B73
0981A31079FB552541516C555A8F09BF
2856088425D299C13BD8EAF0E8214BE0
D5254DE0193EFFDFC205758E9F59D9D2
A18C05A2FA5CA52FBD1CD1B0FC916156
3C81B0C930B2253115A090B7D078F967
46D91AAB78BB641057873C377AE2887F
6FEB7AA0CF1BC18B2FA5374B8113D0EF
58752C8013BDD66DEF84A13E7F1CD7F3
5C59C519809153EDCB75F05E2332F232
40A251DB779096F6EE959597B0C71375
A5F73E9A6A5FFA253E24F275BEDF71FA
D8A65912F52FC7FA4294A496FC9EE838
8E8E78EE37FD7985168268356290FE25
240BF9CF06D74CD8A773F12F031E0758
815EED16D27B3A3DDDA9B3BE58802152
D0C02F0339A1D7C0E1BE422109A5C378
DC071082608218F69873652800DB5572
CC53EF5307DD72C558BB342085A84E2F
F9D9E86B9D31F24F940785E5FA06FAF3
436D82BB18865C84262254E4D312DE34
776B6B0F70A1B70B10ACA06A45E11132
D9061A62DBC51F2AF343E2EA601FAC9A
0EB701E4C693C11A367FD0E8700752ED
C2BEFCABBF28EA1477FE38FB80A26606
89B54A931806D301712CEAE9477E9B98
572A3F9EC5EEBDC42319BB8D7975A0F1
5DFC55E1DB903B7826D8C9B026CA3121
6ED95BC5B200016457061ED095CD9135
F994B4318FE684F394102EE17B75D126
AD5B60D542B1A6A81418C5F0DAEA6B60
082843BA2C87130917C96BEF198F83BA
A50AD8C8CF2ACA1845DCF856CDCDC740
E3158937B212370857F117566BA8CF19
399667C44D436C75306763E368BCFA53
12C74330A5AD37C428CC25B948F055CF
9790F2EDC22AB72BC937C5E5948F75A8
E4B2B2D504445B82027C6B31C7F5F251
8B0544DE7367856FC0C3FCFDB183FC60
91B915A2137AB32A131DD49DC307136F
DF7E248A89B4457BC34F80BE54884C7E
10D0B73EC5DB040EE6DD2294D3DF89A6
5E40ED2125C28BC50078659CD7843842
E8EFC6AF86D1103E80E69F6562CF5602
B7CA8E61DB077B68455836A605A3D153
383035E2B58D94E39E1D4B13B2C35D8F
B693D61907358486E197CAFFD3146888
B1C10CAB0FE0A7D0BC6949C38521BF61
D28E4CF13477F48E4A2D95F9BEB9FB7B
84E7C1E80955B3941CC55192926DF99D
2BA1DE6D40A664D5FC2C656FD64B8364
7824823819919801782E082D021F52CA
A57142E7AF20E0E35BCEBAE9876E065A
4B69D55A50A2AF9F666686F2FA85583F
1EC2BBA324769EB6B48DE91C4C2EE335
DD8EF2112AFD3218A366F9A0AF1C5048
8EEB0B8BEE6089D485D0251D2F2732A8
4456B3D80D78523DE5A1F75377C43CE0
0E965AAE439B4E9AA8296295876A748E
E898262FD50230DE6DE9608733B65562
B44D3A80FD57632445500CAEFC09AF7D
02329F3CE6D57A79E418F3E43EA3FBC0
62D4ACBF18268FBB1A89293F38642A25
2DCC50056EDF0EBE228B37EBA16D5116
DEBC0E7C62C6215636402C432C602F7B
E4F19B5C6A5A3997312203A04B85090B
36498A381FEF135265064355109CF73E
AE7EF198F9D30C82DACCF0175E3864F7
37EAB047F4BE498150FD9C5A81C0C9DC
DA6F7D05F5CE859537E8A018CEC62E01
F5D7BC7AF52C570917F27FB11CD5DED9
6C64B992DEF9F168CC34B8ED9E971801
B9DECE9482857CAA721AF59B63271C99
AF8CEB2A99B9F398A7DE8799FBE3083F
F6C1DA9948C418589A6891055ACEA38E
854D9B41B35D268CBE604638592594DB
3F0A6257602A1444DEE73599BEAD4895
0842A1C70E491E2D63F1DB382779FF51
0FC5B4CD958AB75246292F6F6A65F7B9
841D1B43FF4681D9125F686B4C7E5819
20882EB28270989A7DACD33A87948063
9FD4CD2DE381080B11CF9E13672B67F9
A52C932F5027C7A93C66EF075E1908D7
CE48E316DC595CE6647A78F43D9575A7
9B616E8D42E14038445DD311BA939E70
5EA9E2D93ADB57A00EAEFE118B58BE8B
1914ABFBFA30DA3CAEFC341EEEDEB77B
0F5D7B3A2767788176242F5ED3F6130F
0087ADDD6F0ED5AE8D637A0BADC82232
E22F6E7B13C0501B1CDA90A4E2DF705A
9ABA4178FFDF582FB42B45511FE3AAFE
05A80E15A4B1A7D406173DD09128A8EB
81457B6829B838C2D5AFF4F71BCF4156
ADC87F7DB638E291C8F965F793D479CF
CCB069ECDD53488758F711D8410803DA
C04BA867D8997ACE5BFF7880D3C0C986
0708E42E6FACA18347BD6D5A4B1CFFB7
CCA76D50DE06B5DECEDF9BEBCF323DF1
39033C4D156B9BCAEDCF7526B9C6887E
A14F3EC9742A9E52837488402D390650
EFF73E72F2F53D91C9C1979DDE68C312
55AEBBCA9F5B1834F5B72CCDB0289641
06A69ECE02DD900A8B5C1A929453FA24
0DFFD25220676151BAB1699676AE511D
ABDA41A58D6B1C9674F3F38044341C43
9B73A13E6DA7FE6E5C6F1F3CE469633C
E1BA52184D633DF8CA732F1AA4F3DE7C
4C0A14BAEEC8BA9E0280E88183A0893A
7E400F5211636F08D435A66D9F701B0D
0E7CF22ADF739D88ED07E4D355325EE2
A38375967858578868996872916BCF17
2DDD878D5AD8DBABEC8ABA470AFEBCDD
D01BC4728F2D4B3BE5C968BB981816AC
EF6E4F95DFA8D46E2671278DF7E3721B
D346C1F1BCC801DE63037F085E00BCE2
DB849BBC8217BD056483AAAE1FC7E215
A830F0EE8F31FAE06CC1FDD55506ED0F
D764152CFF195FD9EBDB6AB915ADC344
52228B71928040EE7C7D32C4ABE3138E
8E545E7F20D72C9E8910D01827F68911
0966AC9074F01ECBBEE64761E999F1AE
F29965BAC7925808A460A5D11785D986
5F4DF0B089D856A921D104BD2ADC685D
F2BF6F60635BDE1F5D1212D01CBBFA2B
3D6C310C7A1D813EAE4AFBE00C510D69
D5F80C914619DC8D4A0F8FF7D7FDC821
62D6172E5BB0C893A9D0A416E1098B88
7473D4059D5C856588A8EA6F53F60E19
FEFE73CAE7F6C3D2D02F92AF2D8767FA
8C42DAD1B8B1E4369FCC4FFE280A946D
2AD23DD67E84E3C0F16A8E222E187F9F
FC6E03AE6B216BF8FAA7E1AF8CB644D1
3927C3B723B2FB1A7D6A926659693D2A
A8C797BF984809B57B2FF57315A748F1
DEA7DED65FF5E960AC739A701E7943E9
03655544FD43957D9E0C90A42AE03E98
8FD2BD2AF13C6FE3E6A913C84C5C8E62
8C9B1A8B3346AE73C17EB88F6FBC3CDC
E7E613F472AAAF67DED49F770B5BB1C0
9D799CA76448F3DEE2C1EA67448726C6
ABAA35AA5313DD2DE5436C7903CE8A2F
46BA5A98B31B93380E09B8D0FE30C4DA
F6F885DD8C1B43E956464CBD02E469AB
D81E1BE77F88B0894862BDC00DB9183D
AA423F1BADE0272D6DFEE268F2694DF9
19FAC1D11143FFA1E758A341692589BA
F493BEBA8809A565594B18F8117ADDA5
5EC1B579ED6C60FED637307CCFE8DA99
D7C9E94669C122A8D48130D157457C81
02E43B953EB6487302B5E14030435B18
492E453A1C59DC3FAA74C4B97C5012A6
E8847337DCADA98115CD4B6C5E43EB77
354C0D5A43AFE1F7D12A005D5B116B54
E74E85636CDE048FD89E85AEA3668F4D
9276BD01B1C550C9E43E43FE4A2E4EEB
1E85097BD5FA4ECEBBB33DC542315B29
ADF06C051FE6651ED12E54CD62A602DE
973D200EFAD60E7159D801E9C113D195
0CCE4D51526FC21869DD2B4C3C20A9B5
5DD9FEBCA1C2EC4063D46CF6E87C9105
BBD68E3C55D60B1C2739C953197EA6A0
67E3014AB371C7025965BED792B038C2
972AF21FE36EEF5AA7B5B081B631D013
E433A18F2E8D2D33CB46B1710A2118D9
123FCEB58E03E410E1FD8C23C0B51C4A
1F814B4036999EBD22BBAD26E3DA1666
1F48B1D9A6F90E4268D3F2D0F28D55BE
7ADDA7E64BFB61ACD62DEBF061AAEEA3
45B5E0C2B2BC3C0C11C276B1B540168A
E499CD8B8899519D615EDC6CC769B0E8
25311A546EA4C1422C639203D7FB0856
C2811E9C4812F8B53430D340515144DA
2FD1FAA852E5FA5CC2FB307DB3321144
3EA8215467FD0E6C2D1D1996357A7DC2
848BE9D7A94B885309E20605DC7107F4
99509EED7F5A2FF858BF7C4447F21403
FA62FA66F67BDC59AD7AE8ACA24A35A5
49F28BAD029DD047A5182E3A85A6B253
8E0EF891E5E6A668461E730E01E96700
0E61AA8874A7A1A7F7AB529ACF0A973F
6F0CD30156E7A1D893B695C4364B7348
79695FB564B17222D575A4F6E29365AB
1BE34BEBECF689B385922983DFF3F151
0A447EDE239191D65194846E23BBE7EB
537E5B2158124F0D32137FFDAE475FAB
D6EEAE8E59902347BFC3D1522A83C1F5
318E7CA52B97DCF1298F5F1D3D46835B
32D514F783A3C300004F030DC8ADAA0D
B22BDF2FBC1F7A00FCAE293FBC263ACC
578D78B30A995AC21FAA315CF460C919
BCEFC3E380414EA41549BAA2DC2ECE4C
26F622EF9FD6E309B93933C29DF1FB53
9F3835C911ECE1AC09A52971C7F1355E
08EB915D2B338EB7CC55B56F5BB0B54D
51E3ED59CF732B7CE73D828BF17D6F69
F6ED52ABB6E66B0A42F3ED492F290297
90FFA1EFCBE55020B99D1BDB1DAC6762
22940F39C7901C557B19A456A96D2FF8
11CE0FAEF5BB2539B906235A965213F5
E5A81DE559F738601D1F04C324757FD9
F42C345092888FE7459182EE023DE0C6
8A7B501E1DA393DBFC37BF111F24FCC6
DDE3585FC74FED9856F45AF2CD8597B0
A3CD328316D05FEB6A266874A0519786
89BA2044AFCB8ECB9319394A54E83921
4A327756AB9A15501DA9CD93A4037503
80B07B1799529B863428557BC89C9763
3129C823001380C35A6FA35117793645
9D915F0AEC3281AF4D95EE3B9F048DA2
CDAC6C8DA06D8FB47803852DF5B6B47E
6C3C34C8418266995D08C8F7E65226FC
FD96A19B4637C1BA6BA738CB731AD19F
6AB475A81B52D27ADF86E7325FD7E9B0
F2A2EED81AA12024ED62A3B9B2AC81AF
FC9B2F48130C60AD7265F64A16B22706
6E1C3ADAEFAF573C0FB5D4FE6F092886
9BAD5CE975BD2E8A672AF6E07F4C6461
746887B5836F0704867824BE49CDFF4F
26C0776F76E2C18A5BED407D1E049E4B
CCCDF4DD3BD8430343B8C537D6F971CB
06A0964FD62D39B2013A9C700E5C1BBB
D9AC5EF3717584B1C452E0F3802E394C
2543E6175772037264C1C54DDC280558
CFE2ADF8497AAEA02B8399203FEBF7AF
39898D8D96F55C1CAA43490B9EFF2D60
77188EE4BDBE3E56ACF2FB8834AAA602
E9BB9D4D0A5653E9FF572579E2DF8F42
CE0A228E8688187ED948D9E1D57D5964
DAFD30F09F96E6FD0215367E1F737C58
BDB8A0F50012A8F7BA669A7162FAF9AC
982DE77AEE13413B71879B16789B7FAC
554F0AA1C16C03AB93FAFB5E5B1C3239
577C9E04A0DB191B6F906C7CF2AF8D06
15F149A44239CFFA623688829761A434
5922E0F88A22A27D8D70CC9E2D2F4525
16A217EA8D3020C65E91AB09B517C42F
FC510B28B21719D564B753472F716A30
78C175FAF9588BC52AAC9786D35CA15B
8C0178AA5ED292F4D998BE500C42983B
2462199FAC27E0B5C7C59FDEB568B5AD
3C7DCBB1364A7763E691B3E26725CB19
B5C8BCA610E3B423996A57BA2A932039
4393EC73CC7EA8C0736E6FEAE6BAE91D
E469A54A8B9DBBAA9AE0671D1E5D5012
3FE87340C32CE031DF22FD9D7070828D
9B7D1E971DAC6AC9D0D900EA6CCFECE0
ED44CCE5BBEEBD8A2DCB05AD8C36463D
C2E95F9DAA0D243004C18FC9B0625A24
C03A5445FE34D397EB6CE5A85E6560BE
CB3E31D99C2B350A2EA97085D1B1E5F2
7F45B9B1E24DC126FBC03B5A4E21A978
48F9C81F1D666271B3E815762F0958F6
A12D8A99092FCF24EF1ADABD1FB61028
A3A0E4C6E4B456FDC61C64675C30A848
64BCE4E89C57D5AA5E915A897FDC8ED6
609DAC510950B1D22BF00F964412A7FE
B181810707BCE29A79FC62D6D07CCFF6
4DCE72CE4FA08E33584262683D16B285
861B8D8999BA5CF6F28E83A290298DF6
BE5632879A4912F2065A228ED5401706
CDDFF1E19E99DCC958511998D13481D5
0A2AC8CC7620834DB897E312D8910024
E48934528B4CF15D1A2FE34F753E4F2F
6F56AFDBBDBE8659E3289240870744DB
3F0F9F1DE1D4424077BD2158195FFD90
DC16A15D3D986D8DE255CE37E1CFD51A
ABE986D478B86E43162E4D616B7B622C
8DEDD8C9D2AB192B392B0E649F139492
CF351CD3DB8A09E2354F74DCDC7EB828
19B5888E4F4A6A2C81412EA998DE9AB8
4BE34FCB17DC803B721DC62ED005551E
7E5732B2321BDBACFC11F48A51D1F1C9
26487F01F3CC611D32B4B0670D821FCC
297D29AC9AB3369A14172035E6856EE6
09DD8ED2A039A3773B345C98550CE7D0
642F611E45FDB7394E83EB5AF3BD89F4
1746E1CFC4F069B6C891C9B0F765CF92
905C37F076A4DA6360D173AB109341B2
66E8FD7A0CFAF732033735C18A7689C2
28308B585C8383CD574B23FE09393F64
D557F904A9CB81F30376588D3577FC9E
7DD85594329DE097EAEFD3753975EA08
4ECD058594F382EB7F8C14C04C4A4F7A
6D64D22D02ED9B359154584F0F6A19A3
3BF78395DDAEC1DA10A998C87A3D1A1D
8E4CC62E9DA510EC3BA1F50E2899843A
C100DCF7209D770EEB71686A3104C649
3BEB850484F0D5D8B8AA47AF9675221F
38C362E0FD182F506216F4AD18C25C2F
B8517041CB9C5770F74E8911AA1C594F
DB5119D10D43CC106DBB05BCB00BC8E4
163EED32B238FA0BA5CAFA5377A6D12C
C65DD965936B2E39E3846FC53089869E
1DBB6336721379B04EC139F9DAD61D4F
30BAEDA7D4609BAE7FE48EFC9013EED6
1F134B166E7F09697AFAEC9849F89B9F
A3906517E7EA09F8704796E78DF2D514
7D174623F006F83618862EB3474753AF
3D99B19DA06E77BDE3960188B5F69244
944436FA3021E6553B9BD256E972504E
CC26754B1FE6B9494CEA8FDE482F8DA9
A8C46BB7D2BBAF860920705F90634F3C
8629C276AA6D0F01162BE71E20A83DFD
DDD4D16C5CF6EA137547FCB507CBECAB
3D0B6DEA3C3EA798490A025077FEFBF1
4A3641A4174AC8A474F72E6290F20C8A
DD00B08795D2F6DF478F20EFD1FE8D4E
B16C8C8E51F83F7ABC8260456A27FFA4
A58A72FA6E7FF43E8A4F1BBAE9B6C739
91A8BF8BFDE5EBED671C04BDAE822A7A
F04DC0A8E68FB19B622ABEED5284BA8E
5BFD36B0BF1BD1E0E2282961F8A54F96
889B94BD5FE5759F738BDC2019793330
850F1F1478D54C6B39B73EBBFDC5B03F
28371D2468D8A5F74080897F040E9C30
C9E2DBA2D013624CC403C6E9BE5AC718
A5832E257F89201924A404C072749C7D
F5C21B492440E0387E09ABCC47656726
D6C016F4FEE6A0380531C28F70CF7177
D6BDC8068D5ED4363A5E73A4282A8A58
A876BD5ACC4553FF08A8BA4D6A0568CE
53C5337AB47059B19916A7A5751A3AEA
5742F65E3F309C09BE2F1E86F3C890EC
81927D90D1C4EACFF7C90ED63A1B2D38
5E524154C4AA1569B340FFBAEBEA3434
DD0565018545DED4D19884C6EEFB0A76
3E4F0FF6222E8DE00643CE94783C6C8E
4584205A6D34DC79D792D412F480CC58
4A4674689705BCCA8033135F862E9FA8
B1C015B8EE53A24C9D1A2EEF552AC343
D580BADB4969A19708AF038400E406E8
79458047DFBD10053650EC56A82E8839
12EF69CB2C3E4EA2DAE6598676010B78
852D842154342FD2DB2610BA879C4249
5F3C92BD3A6B09D8D2A194AEE0C9F705
82833EA788B591B02A0C66AEED8FF130
D7DDDCE96C4ED25123EDB8F325866102
E35E8454971F4679B5EDEC0C727258F5
F57DB8B73EB450A3C55F66CE5D34AE87
62B1AA70CBFC6FA25A1C892A6A0A09BA
DA87D92F81D08B45B6784D0ACAF89A79
FC813B918FE1C9FE30AE6EC5C79C9010
62969EA3553942C6ACF1EEAA9FE20D42
81D69205E098EBDDB99E362E9F417702
62EB96004764CEB764E97D5B89D50B09
FD0429CA6C0DE11F4F319843015716E9
56948DD2C29131E7B11C346F84F654E9
2E63BE6EB94422B5BFEED8D866EF4A50
3FBB9423A5A3521FE5D0AB93CD900C5D
07327116CDD908154FC1C73C7A278986
D9D39EA57AA0FBF8F7A160C755F094C0
B940BAEA3F6F0803CD3C19059BDACE30
90AFCC91F9703BC7CD37628DF90DCA5C
F25ACA25904C34149F7B2D3C36FE7214
13D4B4B4EFAD77E8E7A2B56D5D6CC504
6CE8DDBE7021C48E4D76B915FD99E920
5C1B59D7DE56AB8AEA2D0A3250806D36
0DC2F846E946591509072F7583DF735D
5BDB2447017DDAFF738503096C9432A2
973D55FC78DB0973E798E1B430ECD538
7E617D9DD7797F1AC31FC5525F911330
DB41860A2E2D318EC0CDD8837C28644C
0583124186D6F98B7FEC810123AD1A34
4B32AAF32B68B4699CD219DCB0DB8D20
321731286E80FAC431A30425CBD30B63
869EEA3590748BDD17BB7ADBAE676A3C
C921FAD17B0ECCA401DE1047663B7A85
0E1B8D039E877C7DF3BB9C0389CA9586
8788CBD3B1F967BEC0F0019572F28CFD
7DC9C59EE3045A82F22BC90D961DBB35
3D11A8E4FDE7FCF6BABCDE2495E6471B
C20EED43948C586F090647B8DDC00EF2
D1506AB6A8931F9A7E9171F412567C1B
5DC84B4A91F9371D4324D57C14AE5C23
848126DB5544826A763CE5D4E2559A78
20EC2CE27666F9F4352A43A7EA3EABF1
CD752CE838BF691880C8A568E02553B4
924CCCC83C12E7E66F37611DC0EACCAA
C042E9710984A68090DA42CED2EFC7B8
D6344E83584C4C09C542F77B5D678ACD
940D9CE6FEBC5C2BAB56C2DD7BB08D9A
664F3ADD049D15B35A44CC909091DE65
732C89D1EBC2603162D8B4705407F11C
CB4724A6801BDB084A18841A73BA422A
C2C0E7C25F8D93CB4CA408C83D3B2156
043B3913DE98BC96572AA1D86D803FB0
A886FC34C3358BDE7B00B318438BA69C
50DD9B68168022A9B92C9F5D6F510C8B
9D4FE1200A999A3387527619FAF811E0
77307CA2F5A196622DB0E43DF848A4E2
90F6CA5451327D4250084C9A3B778E28
263462D25FC3B0A157B636074873171E
F4CA4FB3B329957BBF29E251F50844E1
30D758B04E9F85525393545467E66744
CA9C98F193DD8B89B0768E01B627A171
E8E9966BABA89C103D9E081EEF68CB7A
CEB079F9C2ED259ECFAF9491C7F1B839
EEA5338B47C27311DB6C87A29DEF8793
ED6B5398A6724225CCD9FEFF81D11DC6
FF6D4E7B31F13A3FF2E49227D19E359E
80C924A87BDD34C532D9760B98011A44
B8E31461785C351E6DAC7E7351FF4424
2CED26A127AA571B9E6A1E49BD460AD0
9EFABAD646E02F08E491679138DC542A
FDA3D56AA804BF19FC6DF841146F394E
C99055A71635593965F9286DC9D0D2FC
36B50CB59C4AD38C5FABF282A372DBDB
06222F5E7C2491C48A949FB0041C22EC
3EA3BEEC7D2E7728B73D143D4F065911
38BBBB96014E5E5C9A668C128F5FC996
D1C716806E23E1F4F4D4018D6BE425ED
181082CC89761499470D7719EF402D7D
178F5ABE906D2A4775087D11164BAE3A
9A9369AD3E758706A1B56CF49DB19263
288B4DB17549EF29A7BD2402C92CD3E0
702D051245BB72CBC6216DEB750771CD
5847073BEC71026BF56CFBB63E651282
CF7D014244BF38426FC088E75F3F2AB5
C4407DE2232ACFDACE9796BDBCDB55D8
B5365EC2033FA979EFCA11B0F45DA91C
61D215AF5963E792A57071D671292A18
4E557AD410B80720FFE583D131AB34D9
F518616F0E1D477087270A3F4ADAD5C0
A8D06E3A3F4A13C1C3148BA8AB35E2E9
CCBBB09268E4CA5CA7B0E11936284000
B11B71692A8234F5960C3715976F96E8
BF48D0F5F9D8D1D90781AF6C9D7AAF21
68C64E6A66D7905E3DFFCEB589FFE070
164B3124A8CAA179B09A4D524E555973
AC0FBEAF6868FEDB269DBED019BDDFB9
A9158DA94AEDED13D3597D6D048A5FA1
36AD79F30BA5F700C0175082FEBC55FA
F1578D1B93D8961683723EF1165E3419
2FC1CCB1A35C913C264D7E5B1ADEED3A
7EA3029CDD8F8127405F4215298CA099
531F183AA46C128CCEEDB9A49D982BB7
4B822F5BF60FF1503ED5E597BD4C9981
AC51276773BE5F150DFE0D4533D096A5
6534944F498F45A6F99BE6A28B5D8C9D
47AA85B410D8E488862E2672E1852932
6DAF6D12E365271229080262916AFB73
2309CCF9854BFECC287DB67D68A97E0F
B81F37EEE756B29B4A08E5C33D90B8A1
FF802293E98E9A84394E5868E9BA5274
25FC190F1C40B83E2F5C8F1B7C557564
62115E152FB8D7FAEC9C9B047A5C316C
FC30B4F20DA77494E53424C4418C1120
58DD4DC8B3AD9C97026DBF148F474730
00A42BC116004FE8FF8879CCBF193150
5C5698CF425E69AC7C3B6A8B9EF88DF7
C16A572DEB6598DD6FE1F92031D48728
51C84C601F6C0B365809FBB3148F353B
97DEB5EAEA3FF38E476EBA643888331A
AD2CDA5F3B747E399ADD430C241149AC
198B84426433C5B2180FCF5640CD7612
4A97C012EC1B2C80F528E1397CAB3149
37AC78038EFF452AE9583EA48E5EC5B9
3BA83FD2632F9AB2B3DA35D8A1F589B2
B8CE21E8227EDA1F69C15ED85D90D59C
85235995DCF693F4B15C17DF98C286DF
E350D13DDDFF6407F67667161F04B252
E39D74FA54971B4A8CCDE0F247BDED8E
DD4FEF8A7069DB3B67F49B509E913904
1067EEC9B038050B7407452391CF6F30
0924CE575625946DDD9DB91FF0507432
76D4D0E6EB046155DC02637C07AC32DC
4940DAF3348525D3FAFFE29FECCFACE2
CED6CD7C5F8FEBA4ED849E5EB96655F6
B94F5347D24F829C276B774F0C06833B
60341870F4CB51953FCD1741CF8B5960
B54A3C85B08B2702FC2FF0F8B6CF041B
F1BF35DB1693E2CDD8B48FCF9191312E
A6FC30AF23A8122DDE78D119E6A1D968
6A04766F2461C1DC0369B6367BA437DE
1EF924E161ED547E57E6920DE2AF1359
BA9A25C1E2141A79AD7A66430F6AE023
848F67C7FFF530F2AADEA6B3B396485F
BBB23651503AFBCE2797D66654A1A74D
D82F25CCE2E9D941E2344936357778F4
04457EEC706AD75ED640E425B759B1C2
468D915801A4ACF7F2CBFEF41E154E54
E426D7D7087E5E6ED23FCFEA0E34C037
97CBE75FE62201DE4E76487785CFEFA2
AAB42AB991C32BEB99918B2AF1EDFA3D
60EA97353CE790363222F58051CAB5E6
1047C1C91EA042963CF79197D0A1249E
0C0636BA45E34936CBF464571AE43E1D
E74A818F82464CA1CB5E93457F6EBF54
B2625A1CCE3D0F218BBF159EB76EFFDD
AA3FDB03EFEC69C93983C57E4908957C
FEEED8D58AA9E00FF77F67C061D6AF84
16A78DDE1B62FBAA9E02A325A32EB398
2741A4CA468EDFA47B60C4E48293D306
239D76182BE8409731B646CFE6034551
74E12C018BED27C5A7A4FD71755907DC
CE357B2FBA3A4CB1777446871F551288
C82ECC809317A1811C6766A1041D2BB7
87686E893CF27B2C90C0F5F6C1438671
D6DDDE09304806B632C959A12A5F72B5
702F992A1DA9597EFF42323B51B50AAB
B8BA9541DE27C8F806B955F51CCCDB24
F9484D4955F578D1266E2B80BD91D4B2
4AE5EB541E0D02F65F5D4F34FF2BCB31
A71AE8AE898CE04E505F7F17F66D1F73
D43E832B551931980DB949FD96D044CB
E987885F448C549FFC7D2AD748692AA9
A63B945B939547D7EAD7B0A4035003D3
82FA6EEBCE1257D5F2A5A80E3B0EC0F0
72D68058A13859171DB9B413B02307FE
59E4F2138B77F99C10F8400162DB3936
3C1E9E5D126C90C87BD6459C7D12BFD0
1EB1344851D5AD516B42C75825EAFAC4
4C78DA2652C653FFEEFB898B33CB09EC
96C5563E22274CA8ACA5D44E9CAC6C39
2278D25BC2DB6A32AD57DE66CE736E28
7637B7B3D7808BE5B7FA4B578725C776
B21E29D02EC9F0B0D603269CF27E9669
49EE9AC5E83D12310CB06911A3D18D4C
B1B1C755C27D309063DC8DD427969930
9CDBF42A5134C904AADF309D1389A08F
8A34E885B77E9312ECECBA00D018300B
D927E72772FA9A16A9C171636100D16C
D33DCAE14BED928F8B67D8933446C838
D16A7F5EEE94643B79321DADAE9E19F5
FD0CE7BD6750F89AE0D0E39317AA213D
DB41A086B7BFFBDB8BD27DABEAE471FE
8FB0571C4C7B21B2BA006B5DCE68287A
6655190CC3F11E4489428EF41B7DBB06
866F887B44EE316CB7F005C00F48921B
8D72D8996BB190C34B5D24BAEF66B344
39F51FAAB484CB676402DCA7942811CE
5F5CD2980E1D9C35C058D870A746B77E
7C9F60E5517BC151DA28B93EC0128A26
